CustomerId,Title,FirstName,LastName,Address,Postcode,Dob,HomePhone,MobilePhone,WorkPhone,Email,FinanceType,Lender,Amount,StartDate,EndDate,Arrears
129,Mr,Terry,Whatmov,25 green street Manchester,M3 4CV,01/01/1985,162369854,4478598566,36987456,terry@hotmail.com,Mortgage,Halifax,250000,23/02/1999,25/04/2000,36000
130,Mrs,Mary,Boyle,45 victoria road Liverpool,LL3 4BQ,05/03/1975,569874136,77859854566,1258745896,vick.ress@gmail.co.uk,Credi Card,Citi Bank,40000,12/04/1992,12/04/1996,
131,Dr,Brian,Cox,4regent road Birmingham,BL8 9BB,14/06/1969,3698745651,77856956216,326987456,brian.cox@virgin.com,Loan,Barcleys,560000,03/02/2003,04/06/2009,1500
